[
  {
    "description": "Allow users to pass Ints into tag and then convert to String",
    "type": "patch"
  },
  {
    "description": "Internal maintenance: Fix docker linter warnings.",
    "type": "patch"
  }
]